{
  "allowSave": false,
  "components": [
    {
      "label": "Columns",
      "columns": [
        {
          "components": [
            {
              "label": "iTheses.PartΟfΤheΤitle",
              "spellcheck": true,
              "tableView": true,
              "validate": {
                "unique": false,
                "multiple": false
              },
              "key": "thesisName",
              "type": "textfield",
              "input": true,
              "hideOnChildrenHidden": false
            }
          ],
          "width": 6,
          "offset": 0,
          "push": 0,
          "pull": 0
        },
        {
          "components": [
            {
              "label": "iTheses.StudentFullName",
              "spellcheck": true,
              "tableView": true,
              "validate": {
                "unique": false,
                "multiple": false
              },
              "key": "studentName",
              "type": "textfield",
              "input": true,
              "hideOnChildrenHidden": false,
              "description": "Search by name, surname"
            }
          ],
          "width": 6,
          "offset": 0,
          "push": 0,
          "pull": 0
        }

      ],
      "tableView": false,
      "type": "columns",
      "input": false,
      "path": "columns"
    },
    {
      "label": "Columns",
      "columns": [
        {
          "components": [
            {
              "label": "iTheses.StudentIdentifier",
              "spellcheck": true,
              "tableView": true,
              "validate": {
                "unique": false,
                "multiple": false
              },
              "key": "studentIdentifier",
              "type": "textfield",
              "input": true,
              "hideOnChildrenHidden": false
            }
          ],
          "width": 3,
          "offset": 0,
          "push": 0,
          "pull": 0
        },

        {
          "components": [
            {
              "label": "iTheses.StudentStatus",
              "widget": "choicesjs",
              "dataSrc": "url",
              "data": {
                "url": "StudentStatuses?$orderby=id desc",
                "headers": []
              },
              "selectThreshold": 0.3,
              "validate": {
                "unique": false,
                "multiple": false
              },
              "template": "<span class='d-block pr-5 text-truncate'>{{ item.alternateName }}</span>",
              "key": "studentStatus",
              "valueProperty": "alternateName",
              "selectValues": "value",
              "type": "select",
              "input": true,
              "hideOnChildrenHidden": false,
              "disableLimit": false,
              "lazyLoad": false
            }
          ],
          "width": 3,
          "offset": 0,
          "push": 0,
          "pull": 0
        },
        {
          "components": [
            {
              "label": "iTheses.StartYear",
              "widget": "choicesjs",
              "dataSrc": "url",
              "data": {
                "url": "AcademicYears?$orderby=id desc",
                "headers": []
              },
              "selectThreshold": 0.3,
              "validate": {},
              "template": "<span class='d-block pr-5 text-truncate'>{{ item.name }}</span>",
              "key": "startYear",
              "valueProperty": "id",
              "selectValues": "value",
              "type": "select",
              "input": true,
              "hideOnChildrenHidden": false,
              "disableLimit": false,
              "lazyLoad": false
            }
          ],
          "width": 3,
          "offset": 0,
          "push": 0,
          "pull": 0
        },

        {
          "components": [
            {
              "label": "iTheses.RoleType",
              "labelPosition": "top",
              "widget": "choicesjs",
              "searchEnabled": false,
              "data": {
                "values": [
                  {
                    "label": "iTheses.RoleNames.member",
                    "value": "member"
                  },
                  {
                    "label": "iTheses.RoleNames.supervisor",
                    "value": "supervisor"
                  },
                  {
                    "label": "iTheses.RoleNames.co-supervisor",
                    "value": "co-supervisor"
                  }
                ]
              },
              "selectThreshold": 0.3,
              "key": "roleType",
              "type": "select",
              "input": true
            }
          ],
          "width": 3
        }
      ],
      "tableView": false,
      "type": "columns",
      "input": false,
      "path": "columns"
    },
    {
      "label": "Columns",
      "columns": [

        {
          "components": [
            {
              "label": "iTheses.Department",
              "labelPosition": "top",
              "widget": "choicesjs",
              "key": "studentDepartment",
              "dataSrc": "url",
              "data": {
                "url": "Instructors/Me/theses/?$select=department&$expand=department($expand=locale)&$groupby=department",
                "headers": []
              },
              "template": "{{ item.department.locale.name || item.department.name }}",
              "valueProperty": "department.id",
              "selectValues": "value",
              "type": "select",
              "input": true,
              "lazyLoad": false,
              "searchEnabled": true
            }
          ],
          "width": 3,
          "offset": 0,
          "push": 0,
          "pull": 0
        },
        {
          "components": [
            {
              "label": "iTheses.Type",
              "widget": "choicesjs",
              "dataSrc": "url",
              "data": {
                "url": "Instructors/Me/theses/?$select=type&$expand=type($expand=locale)&$groupby=type",
                "headers": []
              },
              "selectThreshold": 0.3,
              "validate": {},
              "template": "<span class='d-block pr-5 text-truncate'>{{ item.type.locale.name || item.type.name }}</span>",
              "key": "thesisType",
              "valueProperty": "type.id",
              "selectValues": "value",
              "type": "select",
              "input": true,
              "hideOnChildrenHidden": false,
              "disableLimit": false,
              "lazyLoad": false
            }
          ],
          "width": 3,
          "offset": 0,
          "push": 0,
          "pull": 0
        },
        {
          "components": [
            {
              "label": "iTheses.ThesesStatus.status",
              "widget": "choicesjs",
              "selectThreshold": 0.3,
              "dataSrc": "url",
              "data": {
                "url": "Instructors/me/theses/?$groupby=status&$select=status&$expand=status($expand=locale)",
                "headers": []
              },
              "template": "{{ item.status.locale.name }}",
              "key": "thesisStatus",
              "valueProperty": "status.id",
              "selectValues": "value",
              "type": "select",
              "input": true,
              "hideOnChildrenHidden": false,
              "disableLimit": false,
              "lazyLoad": false,
              "searchEnabled": false
            }
          ],
          "width": 3,
          "offset": 0,
          "push": 0,
          "pull": 0
        }
      ],
      "tableView": false,
      "key": "columns1",
      "type": "columns",
      "input": false,
      "path": "columns1"
    }
  ]
}
