[
  {
    "title": true,
    "name": "MainMenu"
  },
  {
    "name": "Dashboard",
    "url": "/dashboard",
    "icon": "icon-speedometer",
    "index": 0
  },
  {
    "name": "CoursesNav",
    "url": "/courses",
    "icon": "icon-book-open",
    "index": 10,
    "children": [
      {
        "name": "CoursesCurrent",
        "url": "/courses",
        "icon": "icon-book-open",
        "index": 0
      },
      {
        "name": "CoursesHistory",
        "url": "/courses/history",
        "icon": "icon-book-open",
        "index": 5
      },
      {
        "name": "CoursesExamHistory",
        "url": "/courses/examshistory",
        "icon": "icon-book-open",
        "index": 10
      }
    ]
  },
  {
    "name": "Theses",
    "url": "/theses",
    "icon": "icon-note",
    "index": 20,
    "children": [
      {
        "name": "ThesisProposals",
        "url": "/theses/proposals",
        "icon": "icon-note",
        "index": 0
      },
      {
        "name": "ThesesCurrent",
        "url": "/theses/current",
        "icon": "icon-note",
        "index": 5
      },
      {
        "name": "ThesesCompleted",
        "url": "/theses/completed",
        "icon": "icon-note",
        "index": 5
      },
      {
        "name": "ThesesAdvancedSearch",
        "url": "/theses/advanced",
        "icon": "icon-note",
        "index": 5
      }
    ]
  },
  {
    "name": "StudentsNav",
    "url": "/students",
    "icon": "icon-user",
    "index": 30,
    "children": [
      {
        "name": "SearchStudents",
        "url": "/students",
        "icon": "icon-user",
        "index": 0
      },
      {
        "name": "ConsultedStudentsNav",
        "url": "/consultedStudents",
        "icon": "icon-user",
        "index": 5
      }
    ]
  },
  {
    "name": "supportMenu.Support",
    "url": "",
    "icon": "icon-note",
    "index": 30,
    "children": [
      {
        "name": "DepartmentInfo",
        "url": "/info/department",
        "icon": "icon-puzzle",
        "index": 2
      }
    ]
  },
  {
    "divider": true
  },

  {
    "title": true,
    "name": "UserMenu"
  },
  {
    "name": "ProfileTitle",
    "url": "/profile",
    "icon": "icon-user",
    "index": 40

  },
  {
    "name": "Outline",
    "url": "/outline",
    "icon": "icon-note",
    "index": 70
  },
  {
    "name": "Languageslabel",
    "url": "/lang",
    "icon": "icon-globe",
    "index": 50,
    "children": []

  },
  {
    "name": "Logout",
    "url": "/auth/logout",
    "icon": "icon-lock",
    "variant": "notice",
    "index": 60
  }
]
